avance1/Clasificacion/bancopruebas.vcd
$date
	Wed Jun 17 00:32:51 2020
$end
$version
	Icarus Verilog
$end
$timescale
	1ps
$end
$scope module BancoPruebas $end
$var wire 1 ! fifo_empty_vc0 $end
$var wire 1 " fifo_empty_vc1 $end
$var wire 1 # fifo_error_vc0 $end
$var wire 1 $ fifo_error_vc1 $end
$var wire 1 % fifo_pause_vc0 $end
$var wire 1 & fifo_pause_vc1 $end
$var wire 1 ' reset_L $end
$var wire 1 ( push_vc1 $end
$var wire 1 ) push_vc0 $end
$var wire 1 * pop_vc1 $end
$var wire 1 + pop_vc0 $end
$var wire 10 , datain_class [9:0] $end
$var wire 10 - data_mux_1 [9:0] $end
$var wire 10 . data_mux_0 [9:0] $end
$var wire 1 / clk $end
$var wire 10 0 afVC_o [9:0] $end
$var wire 10 1 aeVC_o [9:0] $end
$scope module instDemux $end
$var wire 1 ' reset_L $end
$var wire 1 ( push_vc1 $end
$var wire 1 ) push_vc0 $end
$var wire 1 * pop_vc1 $end
$var wire 1 + pop_vc0 $end
$var wire 10 2 outclass1 [9:0] $end
$var wire 10 3 outclass0 [9:0] $end
$var wire 1 4 fifo_pause_vc1 $end
$var wire 1 5 fifo_pause_vc0 $end
$var wire 1 6 fifo_error_vc1 $end
$var wire 1 7 fifo_error_vc0 $end
$var wire 1 8 fifo_empty_vc1 $end
$var wire 1 9 fifo_empty_vc0 $end
$var wire 10 : datain_class [9:0] $end
$var wire 10 ; data_mux_1 [9:0] $end
$var wire 10 < data_mux_0 [9:0] $end
$var wire 1 / clk $end
$var wire 10 = afVC_o [9:0] $end
$var wire 10 > aeVC_o [9:0] $end
$scope module instDemux $end
$var wire 1 ' reset_L $end
$var wire 10 ? datain_class [9:0] $end
$var wire 1 / clk $end
$var reg 10 @ data_reg0 [9:0] $end
$var reg 10 A data_reg1 [9:0] $end
$var reg 10 B outclass0 [9:0] $end
$var reg 10 C outclass1 [9:0] $end
$upscope $end
$scope module instFifo0 $end
$var wire 4 D aeVC_o [3:0] $end
$var wire 4 E afVC_o [3:0] $end
$var wire 6 F data_vc0 [5:0] $end
$var wire 1 ' reset_L $end
$var wire 1 ) push_vc0 $end
$var wire 1 + pop_vc0 $end
$var wire 6 G data_mux_0 [5:0] $end
$var wire 1 / clk $end
$var reg 1 H almost_empty $end
$var reg 1 I almost_full $end
$var reg 6 J data_count [5:0] $end
$var reg 1 K datamod $end
$var reg 1 9 fifo_empty_vc0 $end
$var reg 1 7 fifo_error_vc0 $end
$var reg 1 L fifo_full $end
$var reg 1 5 fifo_pause_vc0 $end
$var reg 4 M rd_ptr [3:0] $end
$var reg 4 N wr_ptr [3:0] $end
$scope module mem_vc0 $end
$var wire 6 O data_in [5:0] $end
$var wire 4 P rd_ptr [3:0] $end
$var wire 4 Q wr_ptr [3:0] $end
$var wire 1 ) write $end
$var wire 1 ' reset_L $end
$var wire 1 + read $end
$var wire 1 / clk $end
$var reg 6 R data_out [5:0] $end
$upscope $end
$upscope $end
$scope module instFifo1 $end
$var wire 4 S aeVC_o [3:0] $end
$var wire 4 T afVC_o [3:0] $end
$var wire 6 U data_vc1 [5:0] $end
$var wire 1 ' reset_L $end
$var wire 1 ( push_vc1 $end
$var wire 1 * pop_vc1 $end
$var wire 6 V data_mux_1 [5:0] $end
$var wire 1 / clk $end
$var reg 1 W almost_empty $end
$var reg 1 X almost_full $end
$var reg 6 Y data_count [5:0] $end
$var reg 1 Z datamod $end
$var reg 1 8 fifo_empty_vc1 $end
$var reg 1 6 fifo_error_vc1 $end
$var reg 1 [ fifo_full $end
$var reg 1 4 fifo_pause_vc1 $end
$var reg 4 \ rd_ptr [3:0] $end
$var reg 4 ] wr_ptr [3:0] $end
$scope module mem_vc1 $end
$var wire 6 ^ data_in [5:0] $end
$var wire 4 _ rd_ptr [3:0] $end
$var wire 4 ` wr_ptr [3:0] $end
$var wire 1 ( write $end
$var wire 1 ' reset_L $end
$var wire 1 * read $end
$var wire 1 / clk $end
$var reg 6 a data_out [5:0] $end
$upscope $end
$upscope $end
$upscope $end
$scope module instprobador $end
$var wire 10 b data_mux_0 [9:0] $end
$var wire 10 c data_mux_1 [9:0] $end
$var wire 1 ! fifo_empty_vc0 $end
$var wire 1 " fifo_empty_vc1 $end
$var wire 1 # fifo_error_vc0 $end
$var wire 1 $ fifo_error_vc1 $end
$var wire 1 % fifo_pause_vc0 $end
$var wire 1 & fifo_pause_vc1 $end
$var reg 10 d aeVC_o [9:0] $end
$var reg 10 e afVC_o [9:0] $end
$var reg 1 / clk $end
$var reg 10 f datain_class [9:0] $end
$var reg 1 + pop_vc0 $end
$var reg 1 * pop_vc1 $end
$var reg 1 ) push_vc0 $end
$var reg 1 ( push_vc1 $end
$var reg 1 ' reset_L $end
$upscope $end
$upscope $end
$enddefinitions $end
#0
$dumpvars
b0 f
b110 e
b11 d
b0xxxxxx c
b0xxxxxx b
bx a
bx `
bx _
b0 ^
bx ]
bx \
0[
0Z
bx Y
0X
0W
bx V
b0 U
b110 T
b11 S
bx R
bx Q
bx P
b0 O
bx N
bx M
0L
0K
bx J
0I
0H
bx G
b0 F
b110 E
b11 D
b0 C
b0 B
bx A
bx @
b0 ?
b11 >
b110 =
b0xxxxxx <
b0xxxxxx ;
b0 :
19
18
07
06
05
04
b0 3
b0 2
b11 1
b110 0
0/
b0xxxxxx .
b0xxxxxx -
b0 ,
0+
0*
0)
0(
0'
z&
z%
z$
z#
z"
z!
$end
#2000
19
18
b0 A
b0 @
b0 M
b0 P
b0 N
b0 Q
b0 J
b0 \
b0 _
b0 ]
b0 `
b0 Y
1/
#4000
0/
#6000
b11 F
b11 O
b11 3
b11 B
19
18
b11 ,
b11 :
b11 ?
b11 f
1'
1/
#8000
0/
#10000
b100 F
b100 O
b100 3
b100 B
b100 ,
b100 :
b100 ?
b100 f
b11 @
1/
#12000
0/
#14000
b101 F
b101 O
b101 3
b101 B
b100 @
b101 ,
b101 :
b101 ?
b101 f
1/
#16000
0/
#18000
b110 F
b110 O
b110 3
b110 B
b110 ,
b110 :
b110 ?
b110 f
b101 @
1/
#20000
0/
#22000
b111 F
b111 O
b111 3
b111 B
b110 @
b111 ,
b111 :
b111 ?
b111 f
1/
#24000
0/
#26000
b1000 F
b1000 O
b1000 3
b1000 B
b1000 ,
b1000 :
b1000 ?
b1000 f
b111 @
1/
#28000
0/
#30000
b1001 F
b1001 O
b1001 3
b1001 B
b1000 @
b1001 ,
b1001 :
b1001 ?
b1001 f
1/
#32000
0/
#34000
b1010 F
b1010 O
b1010 3
b1010 B
b1010 ,
b1010 :
b1010 ?
b1010 f
b1001 @
1/
#36000
0/
#38000
b1011 F
b1011 O
b1011 3
b1011 B
18
19
b1010 @
b1011 ,
b1011 :
b1011 ?
b1011 f
1(
1)
1/
#40000
0/
#42000
b1100 F
b1100 O
b1100 3
b1100 B
b1011 .
b1011 <
b1011 b
b1011 G
b1011 R
1H
09
b0 -
b0 ;
b0 c
b0 V
b0 a
1W
08
b1100 ,
b1100 :
b1100 ?
b1100 f
b1011 @
b1 J
b1 N
b1 Q
b1 Y
b1 ]
b1 `
1/
#44000
0/
#46000
b1101 F
b1101 O
1W
1H
b1101 3
b1101 B
b10 Y
b10 ]
b10 `
b10 J
b10 N
b10 Q
b1100 @
b1101 ,
b1101 :
b1101 ?
b1101 f
1/
#48000
0/
#50000
b1110 F
b1110 O
b1110 3
b1110 B
1H
1W
b1110 ,
b1110 :
b1110 ?
b1110 f
b1101 @
b11 J
b11 N
b11 Q
b11 Y
b11 ]
b11 `
1/
#52000
0/
#54000
b1111 F
b1111 O
0W
0H
b1111 3
b1111 B
b100 Y
b100 ]
b100 `
b100 J
b100 N
b100 Q
b1110 @
b1111 ,
b1111 :
b1111 ?
b1111 f
1/
#56000
0/
#58000
b10000 F
b10000 O
b10000 3
b10000 B
b10000 ,
b10000 :
b10000 ?
b10000 f
b1111 @
b101 J
b101 N
b101 Q
b101 Y
b101 ]
b101 `
1/
#60000
0/
#62000
b10001 F
b10001 O
14
1X
15
1I
b10001 3
b10001 B
b110 Y
b110 ]
b110 `
b110 J
b110 N
b110 Q
b10000 @
b10001 ,
b10001 :
b10001 ?
b10001 f
1/
#64000
0/
#66000
b10010 F
b10010 O
b10010 3
b10010 B
15
1I
14
1X
b10010 ,
b10010 :
b10010 ?
b10010 f
b10001 @
b111 J
b111 N
b111 Q
b111 Y
b111 ]
b111 `
1/
#68000
0/
#70000
b10011 F
b10011 O
14
1X
15
1I
b10011 3
b10011 B
b1000 Y
b1000 ]
b1000 `
b1000 J
b1000 N
b1000 Q
b10010 @
b10011 ,
b10011 :
b10011 ?
b10011 f
1/
#72000
0/
#74000
b10100 F
b10100 O
b10100 3
b10100 B
15
1I
14
1X
b10100 ,
b10100 :
b10100 ?
b10100 f
b10011 @
b1001 J
b1001 N
b1001 Q
b1001 Y
b1001 ]
b1001 `
1/
#76000
0/
#78000
b10101 F
b10101 O
14
1X
15
1I
b10101 3
b10101 B
b1010 Y
b1010 ]
b1010 `
b1010 J
b1010 N
b1010 Q
b10100 @
b10101 ,
b10101 :
b10101 ?
b10101 f
1/
#80000
0/
#82000
b10110 F
b10110 O
b10110 3
b10110 B
15
1I
14
1X
b10110 ,
b10110 :
b10110 ?
b10110 f
b10101 @
b1011 J
b1011 N
b1011 Q
b1011 Y
b1011 ]
b1011 `
1/
#84000
0/
#86000
b10111 F
b10111 O
14
1X
15
1I
b10111 3
b10111 B
b1100 Y
b1100 ]
b1100 `
b1100 J
b1100 N
b1100 Q
b10110 @
b10111 ,
b10111 :
b10111 ?
b10111 f
1/
#88000
0/
#90000
b11000 F
b11000 O
b11000 3
b11000 B
15
1I
14
1X
b11000 ,
b11000 :
b11000 ?
b11000 f
b10111 @
b1101 J
b1101 N
b1101 Q
b1101 Y
b1101 ]
b1101 `
1/
#92000
0/
#94000
b11001 F
b11001 O
14
1X
15
1I
b11001 3
b11001 B
b1110 Y
b1110 ]
b1110 `
b1110 J
b1110 N
b1110 Q
b11000 @
b11001 ,
b11001 :
b11001 ?
b11001 f
1/
#96000
0/
#98000
b11010 F
b11010 O
b11010 3
b11010 B
15
1I
14
1X
b11010 ,
b11010 :
b11010 ?
b11010 f
b11001 @
b1111 J
b1111 N
b1111 Q
b1111 Y
b1111 ]
b1111 `
1/
#100000
0/
#102000
b11011 F
b11011 O
16
1[
14
1X
17
1L
15
1I
b11011 3
b11011 B
b10000 Y
b0 ]
b0 `
b10000 J
b0 N
b0 Q
b11010 @
b11011 ,
b11011 :
b11011 ?
b11011 f
1/
#104000
0/
#106000
b11100 F
b11100 O
b11100 3
b11100 B
b11011 .
b11011 <
b11011 b
b11011 G
b11011 R
b11100 ,
b11100 :
b11100 ?
b11100 f
b11011 @
1/
#108000
0/
#110000
b11101 F
b11101 O
b11100 .
b11100 <
b11100 b
b11100 G
b11100 R
b11101 3
b11101 B
b11100 @
b11101 ,
b11101 :
b11101 ?
b11101 f
1/
#112000
0/
#114000
b11110 F
b11110 O
b11110 3
b11110 B
b11101 .
b11101 <
b11101 b
b11101 G
b11101 R
b11110 ,
b11110 :
b11110 ?
b11110 f
b11101 @
1/
#116000
0/
#118000
b11111 F
b11111 O
b11110 .
b11110 <
b11110 b
b11110 G
b11110 R
b11111 3
b11111 B
b11110 @
b11111 ,
b11111 :
b11111 ?
b11111 f
1/
#120000
0/
#122000
b100000 F
b100000 O
b100000 3
b100000 B
b11111 .
b11111 <
b11111 b
b11111 G
b11111 R
b100000 ,
b100000 :
b100000 ?
b100000 f
b11111 @
1/
#124000
0/
#126000
b100001 F
b100001 O
b100000 .
b100000 <
b100000 b
b100000 G
b100000 R
b100001 3
b100001 B
b100000 @
b100001 ,
b100001 :
b100001 ?
b100001 f
1/
#128000
0/
#130000
b100010 F
b100010 O
b100010 3
b100010 B
b100001 .
b100001 <
b100001 b
b100001 G
b100001 R
b100010 ,
b100010 :
b100010 ?
b100010 f
b100001 @
1/
#132000
0/
#134000
b100011 F
b100011 O
b100010 .
b100010 <
b100010 b
b100010 G
b100010 R
b100011 3
b100011 B
b100010 @
b100011 ,
b100011 :
b100011 ?
b100011 f
1/
#136000
0/
#138000
b100100 F
b100100 O
b100100 3
b100100 B
b100011 .
b100011 <
b100011 b
b100011 G
b100011 R
b100100 ,
b100100 :
b100100 ?
b100100 f
b100011 @
1/
#140000
0/
#142000
b100101 F
b100101 O
b100100 .
b100100 <
b100100 b
b100100 G
b100100 R
b100101 3
b100101 B
b100100 @
b100101 ,
b100101 :
b100101 ?
b100101 f
1/
#144000
0/
#146000
b100110 F
b100110 O
b100110 3
b100110 B
b100101 .
b100101 <
b100101 b
b100101 G
b100101 R
b100110 ,
b100110 :
b100110 ?
b100110 f
b100101 @
1/
#148000
0/
#150000
b100111 F
b100111 O
b100110 .
b100110 <
b100110 b
b100110 G
b100110 R
b100111 3
b100111 B
b100110 @
b100111 ,
b100111 :
b100111 ?
b100111 f
1/
#152000
0/
#154000
b101000 F
b101000 O
b101000 3
b101000 B
b100111 .
b100111 <
b100111 b
b100111 G
b100111 R
b101000 ,
b101000 :
b101000 ?
b101000 f
b100111 @
1/
#156000
0/
#158000
b101001 F
b101001 O
b101000 .
b101000 <
b101000 b
b101000 G
b101000 R
b101001 3
b101001 B
b101000 @
b101001 ,
b101001 :
b101001 ?
b101001 f
1/
#160000
0/
#162000
b101010 F
b101010 O
b101010 3
b101010 B
b101001 .
b101001 <
b101001 b
b101001 G
b101001 R
b101010 ,
b101010 :
b101010 ?
b101010 f
b101001 @
1/
#164000
0/
#166000
b101011 F
b101011 O
b101010 .
b101010 <
b101010 b
b101010 G
b101010 R
b101011 3
b101011 B
b101010 @
b101011 ,
b101011 :
b101011 ?
b101011 f
1/
#168000
0/
#170000
b101100 F
b101100 O
b101100 3
b101100 B
b101011 .
b101011 <
b101011 b
b101011 G
b101011 R
b101100 ,
b101100 :
b101100 ?
b101100 f
b101011 @
1/
#172000
0/
#174000
b101101 F
b101101 O
b101100 .
b101100 <
b101100 b
b101100 G
b101100 R
b101101 3
b101101 B
b101100 @
b101101 ,
b101101 :
b101101 ?
b101101 f
1/
#176000
0/
#178000
b101110 F
b101110 O
b101110 3
b101110 B
b101101 .
b101101 <
b101101 b
b101101 G
b101101 R
b101110 ,
b101110 :
b101110 ?
b101110 f
b101101 @
1/
#180000
0/
#182000
b101111 F
b101111 O
b101110 .
b101110 <
b101110 b
b101110 G
b101110 R
b101111 3
b101111 B
b101110 @
b101111 ,
b101111 :
b101111 ?
b101111 f
1/
#184000
0/
#186000
b110000 F
b110000 O
b110000 3
b110000 B
b101111 .
b101111 <
b101111 b
b101111 G
b101111 R
b110000 ,
b110000 :
b110000 ?
b110000 f
b101111 @
1/
#188000
0/
#190000
b110001 F
b110001 O
b110000 .
b110000 <
b110000 b
b110000 G
b110000 R
b110001 3
b110001 B
b110000 @
b110001 ,
b110001 :
b110001 ?
b110001 f
1/
#192000
0/
#194000
b110010 F
b110010 O
b110010 3
b110010 B
b110001 .
b110001 <
b110001 b
b110001 G
b110001 R
b110010 ,
b110010 :
b110010 ?
b110010 f
b110001 @
1/
#196000
0/
#198000
b110011 F
b110011 O
b110010 .
b110010 <
b110010 b
b110010 G
b110010 R
b110011 3
b110011 B
b110010 @
b110011 ,
b110011 :
b110011 ?
b110011 f
1/
#200000
0/
#202000
b110100 F
b110100 O
b110100 3
b110100 B
b110011 .
b110011 <
b110011 b
b110011 G
b110011 R
b110100 ,
b110100 :
b110100 ?
b110100 f
b110011 @
1/
#204000
0/
#206000
b110101 F
b110101 O
b110100 .
b110100 <
b110100 b
b110100 G
b110100 R
b110101 3
b110101 B
b110100 @
b110101 ,
b110101 :
b110101 ?
b110101 f
1/
#208000
0/
#210000
b110110 F
b110110 O
b110110 3
b110110 B
b110101 .
b110101 <
b110101 b
b110101 G
b110101 R
b110110 ,
b110110 :
b110110 ?
b110110 f
b110101 @
1/
#212000
0/
#214000
b110111 F
b110111 O
b110110 .
b110110 <
b110110 b
b110110 G
b110110 R
b110111 3
b110111 B
b110110 @
b110111 ,
b110111 :
b110111 ?
b110111 f
1/
#216000
0/
#218000
b111000 F
b111000 O
b111000 3
b111000 B
b110111 .
b110111 <
b110111 b
b110111 G
b110111 R
b111000 ,
b111000 :
b111000 ?
b111000 f
b110111 @
1/
#220000
0/
#222000
b111001 F
b111001 O
b111000 .
b111000 <
b111000 b
b111000 G
b111000 R
b111001 3
b111001 B
b111000 @
b111001 ,
b111001 :
b111001 ?
b111001 f
1/
#224000
0/
#226000
b111010 F
b111010 O
b111010 3
b111010 B
b111001 .
b111001 <
b111001 b
b111001 G
b111001 R
b111010 ,
b111010 :
b111010 ?
b111010 f
b111001 @
1/
#228000
0/
#230000
b111011 F
b111011 O
b111010 .
b111010 <
b111010 b
b111010 G
b111010 R
b111011 3
b111011 B
b111010 @
b111011 ,
b111011 :
b111011 ?
b111011 f
1/
#232000
0/
#234000
b111100 F
b111100 O
b111100 3
b111100 B
b111011 .
b111011 <
b111011 b
b111011 G
b111011 R
b111100 ,
b111100 :
b111100 ?
b111100 f
b111011 @
1/
#236000
0/
#238000
b111101 F
b111101 O
b111100 .
b111100 <
b111100 b
b111100 G
b111100 R
b111101 3
b111101 B
b111100 @
b111101 ,
b111101 :
b111101 ?
b111101 f
1/
#240000
0/
#242000
b111110 F
b111110 O
b111110 3
b111110 B
b111101 .
b111101 <
b111101 b
b111101 G
b111101 R
b111110 ,
b111110 :
b111110 ?
b111110 f
b111101 @
1/
#244000
0/
#246000
b111111 F
b111111 O
b111110 .
b111110 <
b111110 b
b111110 G
b111110 R
b111111 3
b111111 B
b111110 @
b111111 ,
b111111 :
b111111 ?
b111111 f
1/
#248000
0/
#250000
b0 F
b0 O
b1000000 3
b1000000 B
b111111 .
b111111 <
b111111 b
b111111 G
b111111 R
b1000000 ,
b1000000 :
b1000000 ?
b1000000 f
b111111 @
1/
#252000
0/
#254000
b1 F
b1 O
b0 .
b0 <
b0 b
b0 G
b0 R
b1000001 3
b1000001 B
b1000000 @
b1000001 ,
b1000001 :
b1000001 ?
b1000001 f
1/
#256000
0/
#258000
b10 F
b10 O
b1000010 3
b1000010 B
b1 .
b1 <
b1 b
b1 G
b1 R
b1000010 ,
b1000010 :
b1000010 ?
b1000010 f
b1000001 @
1/
#260000
0/
#262000
b11 F
b11 O
b10 .
b10 <
b10 b
b10 G
b10 R
b1000011 3
b1000011 B
b1000010 @
b1000011 ,
b1000011 :
b1000011 ?
b1000011 f
1/
#264000
0/
#266000
b100 F
b100 O
b1000100 3
b1000100 B
b11 .
b11 <
b11 b
b11 G
b11 R
b1000100 ,
b1000100 :
b1000100 ?
b1000100 f
b1000011 @
1/
#268000
0/
#270000
b101 F
b101 O
b100 .
b100 <
b100 b
b100 G
b100 R
b1000101 3
b1000101 B
b1000100 @
b1000101 ,
b1000101 :
b1000101 ?
b1000101 f
1/
#272000
0/
#274000
b110 F
b110 O
b1000110 3
b1000110 B
b101 .
b101 <
b101 b
b101 G
b101 R
b1000110 ,
b1000110 :
b1000110 ?
b1000110 f
b1000101 @
1/
#276000
0/
#278000
b111 F
b111 O
b110 .
b110 <
b110 b
b110 G
b110 R
b1000111 3
b1000111 B
b1000110 @
b1000111 ,
b1000111 :
b1000111 ?
b1000111 f
1/
#280000
0/
#282000
b1000 F
b1000 O
b1001000 3
b1001000 B
b111 .
b111 <
b111 b
b111 G
b111 R
b1001000 ,
b1001000 :
b1001000 ?
b1001000 f
b1000111 @
1/
#284000
0/
#286000
b1001 F
b1001 O
b1000 .
b1000 <
b1000 b
b1000 G
b1000 R
b1001001 3
b1001001 B
b1001000 @
b1001001 ,
b1001001 :
b1001001 ?
b1001001 f
1/
#288000
0/
#290000
b1010 F
b1010 O
b1001010 3
b1001010 B
b1001 .
b1001 <
b1001 b
b1001 G
b1001 R
b1001010 ,
b1001010 :
b1001010 ?
b1001010 f
b1001001 @
1/
#292000
0/
#294000
b1011 F
b1011 O
b1010 .
b1010 <
b1010 b
b1010 G
b1010 R
b1001011 3
b1001011 B
b1001010 @
b1001011 ,
b1001011 :
b1001011 ?
b1001011 f
1/
#296000
0/
#298000
b1100 F
b1100 O
b1001100 3
b1001100 B
b1011 .
b1011 <
b1011 b
b1011 G
b1011 R
b1001100 ,
b1001100 :
b1001100 ?
b1001100 f
b1001011 @
1/
#300000
0/
#302000
b1101 F
b1101 O
b1100 .
b1100 <
b1100 b
b1100 G
b1100 R
b1001101 3
b1001101 B
b1001100 @
b1001101 ,
b1001101 :
b1001101 ?
b1001101 f
1/
#304000
0/
#306000
b1110 F
b1110 O
b1001110 3
b1001110 B
b1101 .
b1101 <
b1101 b
b1101 G
b1101 R
b1001110 ,
b1001110 :
b1001110 ?
b1001110 f
b1001101 @
1/
#308000
0/
#310000
b1111 F
b1111 O
b1110 .
b1110 <
b1110 b
b1110 G
b1110 R
b1001111 3
b1001111 B
b1001110 @
b1001111 ,
b1001111 :
b1001111 ?
b1001111 f
1/
#312000
0/
#314000
b10000 F
b10000 O
b1010000 3
b1010000 B
b1111 .
b1111 <
b1111 b
b1111 G
b1111 R
b1010000 ,
b1010000 :
b1010000 ?
b1010000 f
b1001111 @
1/
#316000
0/
#318000
b10001 F
b10001 O
b10000 .
b10000 <
b10000 b
b10000 G
b10000 R
b1010001 3
b1010001 B
b1010000 @
b1010001 ,
b1010001 :
b1010001 ?
b1010001 f
1/
#320000
0/
#322000
b10010 F
b10010 O
b1010010 3
b1010010 B
b10001 .
b10001 <
b10001 b
b10001 G
b10001 R
b1010010 ,
b1010010 :
b1010010 ?
b1010010 f
b1010001 @
1/
#324000
0/
#326000
b10011 F
b10011 O
b10010 .
b10010 <
b10010 b
b10010 G
b10010 R
b1010011 3
b1010011 B
b1010010 @
b1010011 ,
b1010011 :
b1010011 ?
b1010011 f
1/
#328000
0/
#330000
b10100 F
b10100 O
b1010100 3
b1010100 B
b10011 .
b10011 <
b10011 b
b10011 G
b10011 R
b1010100 ,
b1010100 :
b1010100 ?
b1010100 f
b1010011 @
1/
#332000
0/
#334000
b10101 F
b10101 O
b10100 .
b10100 <
b10100 b
b10100 G
b10100 R
b1010101 3
b1010101 B
b1010100 @
b1010101 ,
b1010101 :
b1010101 ?
b1010101 f
1/
#336000
0/
#338000
b10110 F
b10110 O
b1010110 3
b1010110 B
b10101 .
b10101 <
b10101 b
b10101 G
b10101 R
b1010110 ,
b1010110 :
b1010110 ?
b1010110 f
b1010101 @
1/
#340000
0/
#342000
b10111 F
b10111 O
b10110 .
b10110 <
b10110 b
b10110 G
b10110 R
b1010111 3
b1010111 B
b1010110 @
b1010111 ,
b1010111 :
b1010111 ?
b1010111 f
1/
#344000
0/
#346000
b11000 F
b11000 O
b1011000 3
b1011000 B
b10111 .
b10111 <
b10111 b
b10111 G
b10111 R
b1011000 ,
b1011000 :
b1011000 ?
b1011000 f
b1010111 @
1/
#348000
0/
#350000
b11001 F
b11001 O
b11000 .
b11000 <
b11000 b
b11000 G
b11000 R
b1011001 3
b1011001 B
b1011000 @
b1011001 ,
b1011001 :
b1011001 ?
b1011001 f
1/
#352000
0/
#354000
b11010 F
b11010 O
b1011010 3
b1011010 B
b11001 .
b11001 <
b11001 b
b11001 G
b11001 R
b1011010 ,
b1011010 :
b1011010 ?
b1011010 f
b1011001 @
1/
#356000
0/
#358000
b11011 F
b11011 O
b11010 .
b11010 <
b11010 b
b11010 G
b11010 R
b1011011 3
b1011011 B
b1011010 @
b1011011 ,
b1011011 :
b1011011 ?
b1011011 f
1/
#360000
0/
#362000
b11100 F
b11100 O
b1011100 3
b1011100 B
b11011 .
b11011 <
b11011 b
b11011 G
b11011 R
b1011100 ,
b1011100 :
b1011100 ?
b1011100 f
b1011011 @
1/
#364000
0/
#366000
b11101 F
b11101 O
b11100 .
b11100 <
b11100 b
b11100 G
b11100 R
b1011101 3
b1011101 B
b1011100 @
b1011101 ,
b1011101 :
b1011101 ?
b1011101 f
1/
#368000
0/
#370000
b11110 F
b11110 O
b1011110 3
b1011110 B
b11101 .
b11101 <
b11101 b
b11101 G
b11101 R
b1011110 ,
b1011110 :
b1011110 ?
b1011110 f
b1011101 @
1/
#372000
0/
#374000
b11111 F
b11111 O
b11110 .
b11110 <
b11110 b
b11110 G
b11110 R
b1011111 3
b1011111 B
b1011110 @
b1011111 ,
b1011111 :
b1011111 ?
b1011111 f
1/
#376000
0/
#378000
b100000 F
b100000 O
b1100000 3
b1100000 B
b11111 .
b11111 <
b11111 b
b11111 G
b11111 R
b1100000 ,
b1100000 :
b1100000 ?
b1100000 f
b1011111 @
1/
#380000
0/
#382000
b100001 F
b100001 O
b100000 .
b100000 <
b100000 b
b100000 G
b100000 R
b1100001 3
b1100001 B
b1100000 @
b1100001 ,
b1100001 :
b1100001 ?
b1100001 f
1/
#384000
0/
#386000
b100010 F
b100010 O
b1100010 3
b1100010 B
b100001 .
b100001 <
b100001 b
b100001 G
b100001 R
b1100010 ,
b1100010 :
b1100010 ?
b1100010 f
b1100001 @
1/
#388000
0/
#390000
b100011 F
b100011 O
b100010 .
b100010 <
b100010 b
b100010 G
b100010 R
b1100011 3
b1100011 B
b1100010 @
b1100011 ,
b1100011 :
b1100011 ?
b1100011 f
1/
#392000
0/
#394000
b100100 F
b100100 O
b1100100 3
b1100100 B
b100011 .
b100011 <
b100011 b
b100011 G
b100011 R
b1100100 ,
b1100100 :
b1100100 ?
b1100100 f
b1100011 @
1/
#396000
0/
#398000
b100101 F
b100101 O
b100100 .
b100100 <
b100100 b
b100100 G
b100100 R
b1100101 3
b1100101 B
b1100100 @
b1100101 ,
b1100101 :
b1100101 ?
b1100101 f
1/
#400000
0/
#402000
b100110 F
b100110 O
b1100110 3
b1100110 B
b100101 .
b100101 <
b100101 b
b100101 G
b100101 R
b1100110 ,
b1100110 :
b1100110 ?
b1100110 f
b1100101 @
1/
#404000
0/
#406000
b100111 F
b100111 O
b100110 .
b100110 <
b100110 b
b100110 G
b100110 R
b1100111 3
b1100111 B
b1100110 @
b1100111 ,
b1100111 :
b1100111 ?
b1100111 f
1/
#408000
0/
#410000
b101000 F
b101000 O
b1101000 3
b1101000 B
b100111 .
b100111 <
b100111 b
b100111 G
b100111 R
b1101000 ,
b1101000 :
b1101000 ?
b1101000 f
b1100111 @
1/
#412000
0/
#414000
b101001 F
b101001 O
b101000 .
b101000 <
b101000 b
b101000 G
b101000 R
b1101001 3
b1101001 B
b1101000 @
b1101001 ,
b1101001 :
b1101001 ?
b1101001 f
1/
#416000
0/
#418000
b101010 F
b101010 O
b1101010 3
b1101010 B
b101001 .
b101001 <
b101001 b
b101001 G
b101001 R
b1101010 ,
b1101010 :
b1101010 ?
b1101010 f
b1101001 @
1/
#420000
0/
#422000
b101011 F
b101011 O
b101010 .
b101010 <
b101010 b
b101010 G
b101010 R
b1101011 3
b1101011 B
b1101010 @
b1101011 ,
b1101011 :
b1101011 ?
b1101011 f
1/
#424000
0/
#426000
b101100 F
b101100 O
b1101100 3
b1101100 B
b101011 .
b101011 <
b101011 b
b101011 G
b101011 R
b1101100 ,
b1101100 :
b1101100 ?
b1101100 f
b1101011 @
1/
#428000
0/
#430000
b101101 F
b101101 O
b101100 .
b101100 <
b101100 b
b101100 G
b101100 R
b1101101 3
b1101101 B
b1101100 @
b1101101 ,
b1101101 :
b1101101 ?
b1101101 f
1/
#432000
0/
#434000
b101110 F
b101110 O
b1101110 3
b1101110 B
b101101 .
b101101 <
b101101 b
b101101 G
b101101 R
b1101110 ,
b1101110 :
b1101110 ?
b1101110 f
b1101101 @
1/
#436000
0/
#438000
b101111 F
b101111 O
b101110 .
b101110 <
b101110 b
b101110 G
b101110 R
b1101111 3
b1101111 B
b1101110 @
b1101111 ,
b1101111 :
b1101111 ?
b1101111 f
1/
#440000
0/
#442000
b110000 F
b110000 O
b1110000 3
b1110000 B
b101111 .
b101111 <
b101111 b
b101111 G
b101111 R
b1110000 ,
b1110000 :
b1110000 ?
b1110000 f
b1101111 @
1/
#444000
0/
#446000
b110001 F
b110001 O
b110000 .
b110000 <
b110000 b
b110000 G
b110000 R
b1110001 3
b1110001 B
b1110000 @
b1110001 ,
b1110001 :
b1110001 ?
b1110001 f
1/
#448000
0/
#450000
b110010 F
b110010 O
b1110010 3
b1110010 B
b110001 .
b110001 <
b110001 b
b110001 G
b110001 R
b1110010 ,
b1110010 :
b1110010 ?
b1110010 f
b1110001 @
1/
#452000
0/
#454000
b110011 F
b110011 O
b110010 .
b110010 <
b110010 b
b110010 G
b110010 R
b1110011 3
b1110011 B
b1110010 @
b1110011 ,
b1110011 :
b1110011 ?
b1110011 f
1/
#456000
0/
#458000
b110100 F
b110100 O
b1110100 3
b1110100 B
b110011 .
b110011 <
b110011 b
b110011 G
b110011 R
b1110100 ,
b1110100 :
b1110100 ?
b1110100 f
b1110011 @
1/
#460000
0/
#462000
b110101 F
b110101 O
b110100 .
b110100 <
b110100 b
b110100 G
b110100 R
b1110101 3
b1110101 B
b1110100 @
b1110101 ,
b1110101 :
b1110101 ?
b1110101 f
1/
#464000
0/
#466000
b110110 F
b110110 O
b1110110 3
b1110110 B
b110101 .
b110101 <
b110101 b
b110101 G
b110101 R
b1110110 ,
b1110110 :
b1110110 ?
b1110110 f
b1110101 @
1/
#468000
0/
#470000
b110111 F
b110111 O
b110110 .
b110110 <
b110110 b
b110110 G
b110110 R
b1110111 3
b1110111 B
b1110110 @
b1110111 ,
b1110111 :
b1110111 ?
b1110111 f
1/
#472000
0/
#474000
b111000 F
b111000 O
b1111000 3
b1111000 B
b110111 .
b110111 <
b110111 b
b110111 G
b110111 R
b1111000 ,
b1111000 :
b1111000 ?
b1111000 f
b1110111 @
1/
#476000
0/
