Dispositivo2/disp2.vcd
$date
	Wed Jun 24 10:39:08 2020
$end
$version
	Icarus Verilog
$end
$timescale
	1s
$end
$scope module BUF $end
$var wire 1 ! A $end
$var wire 1 " Y $end
$upscope $end
$scope module Bancopruebas $end
$var wire 1 # valid_outser1 $end
$var wire 1 $ valid_outser0 $end
$var wire 1 % reset_L $end
$var wire 8 & data_outser1 [7:0] $end
$var wire 8 ' data_outser0 [7:0] $end
$var wire 1 ( data_inser0 $end
$var wire 1 ) data_in $end
$var wire 1 * clk_8f $end
$var wire 1 + clk $end
$scope module prob $end
$var wire 1 # valid_outser1 $end
$var wire 1 $ valid_outser0 $end
$var wire 8 , data_outser1 [7:0] $end
$var wire 8 - data_outser0 [7:0] $end
$var reg 1 + clk $end
$var reg 1 * clk_8f $end
$var reg 1 ) data_in $end
$var reg 1 ( data_inser0 $end
$var reg 1 % reset_L $end
$upscope $end
$scope module ser0 $end
$var wire 1 + clk $end
$var wire 1 * clk_8f $end
$var wire 1 ( data_inser0 $end
$var wire 1 % reset_L $end
$var wire 1 $ valid_outser0 $end
$var wire 8 . shift_reg [7:0] $end
$var wire 8 / data_outser0 [7:0] $end
$var wire 8 0 buffer [7:0] $end
$var wire 3 1 bc_cnt [2:0] $end
$var wire 1 2 active $end
$var wire 1 3 _34_ $end
$var wire 1 4 _33_ $end
$var wire 1 5 _32_ $end
$var wire 1 6 _31_ $end
$var wire 1 7 _30_ $end
$var wire 1 8 _29_ $end
$var wire 1 9 _28_ $end
$var wire 1 : _27_ $end
$var wire 1 ; _26_ $end
$var wire 1 < _25_ $end
$var wire 1 = _24_ $end
$var wire 1 > _23_ $end
$var wire 1 ? _22_ $end
$var wire 1 @ _21_ $end
$var wire 1 A _20_ $end
$var wire 1 B _19_ $end
$var wire 1 C _18_ $end
$var wire 1 D _17_ $end
$var wire 1 E _16_ $end
$var wire 1 F _15_ $end
$var wire 1 G _14_ $end
$var wire 1 H _13_ $end
$var wire 1 I _12_ $end
$var wire 1 J _11_ $end
$var wire 1 K _10_ $end
$var wire 1 L _09_ $end
$var wire 1 M _08_ $end
$var wire 1 N _07_ $end
$var wire 1 O _06_ $end
$var wire 1 P _05_ $end
$var wire 1 Q _04_ $end
$var wire 1 R _03_ $end
$var wire 8 S _02_ [7:0] $end
$var wire 3 T _01_ [2:0] $end
$var wire 1 U _00_ $end
$scope module _35_ $end
$var wire 1 % A $end
$var wire 1 Q Y $end
$upscope $end
$scope module _36_ $end
$var wire 1 V B $end
$var wire 1 P Y $end
$var wire 1 2 A $end
$upscope $end
$scope module _37_ $end
$var wire 1 P A $end
$var wire 1 Q B $end
$var wire 1 U Y $end
$upscope $end
$scope module _38_ $end
$var wire 1 W A $end
$var wire 1 O Y $end
$upscope $end
$scope module _39_ $end
$var wire 1 X A $end
$var wire 1 N Y $end
$upscope $end
$scope module _40_ $end
$var wire 1 N A $end
$var wire 1 O B $end
$var wire 1 M Y $end
$upscope $end
$scope module _41_ $end
$var wire 1 Y A $end
$var wire 1 L Y $end
$upscope $end
$scope module _42_ $end
$var wire 1 Z A $end
$var wire 1 K Y $end
$upscope $end
$scope module _43_ $end
$var wire 1 K A $end
$var wire 1 L B $end
$var wire 1 J Y $end
$upscope $end
$scope module _44_ $end
$var wire 1 J A $end
$var wire 1 M B $end
$var wire 1 I Y $end
$upscope $end
$scope module _45_ $end
$var wire 1 [ A $end
$var wire 1 ( B $end
$var wire 1 H Y $end
$upscope $end
$scope module _46_ $end
$var wire 1 \ A $end
$var wire 1 G Y $end
$upscope $end
$scope module _47_ $end
$var wire 1 G A $end
$var wire 1 ] B $end
$var wire 1 F Y $end
$upscope $end
$scope module _48_ $end
$var wire 1 F A $end
$var wire 1 H B $end
$var wire 1 E Y $end
$upscope $end
$scope module _49_ $end
$var wire 1 E A $end
$var wire 1 I B $end
$var wire 1 D Y $end
$upscope $end
$scope module _50_ $end
$var wire 1 D A $end
$var wire 1 % B $end
$var wire 1 C Y $end
$upscope $end
$scope module _51_ $end
$var wire 1 C A $end
$var wire 1 ^ B $end
$var wire 1 _ Y $end
$upscope $end
$scope module _52_ $end
$var wire 1 ` A $end
$var wire 1 B Y $end
$upscope $end
$scope module _53_ $end
$var wire 1 a A $end
$var wire 1 A Y $end
$upscope $end
$scope module _54_ $end
$var wire 1 A A $end
$var wire 1 B B $end
$var wire 1 @ Y $end
$upscope $end
$scope module _55_ $end
$var wire 1 b A $end
$var wire 1 c B $end
$var wire 1 ? Y $end
$upscope $end
$scope module _56_ $end
$var wire 1 ? A $end
$var wire 1 @ B $end
$var wire 1 > Y $end
$upscope $end
$scope module _57_ $end
$var wire 1 > A $end
$var wire 1 C B $end
$var wire 1 d Y $end
$upscope $end
$scope module _58_ $end
$var wire 1 e A $end
$var wire 1 = Y $end
$upscope $end
$scope module _59_ $end
$var wire 1 ? A $end
$var wire 1 < Y $end
$upscope $end
$scope module _60_ $end
$var wire 1 < A $end
$var wire 1 = B $end
$var wire 1 ; Y $end
$upscope $end
$scope module _61_ $end
$var wire 1 ? A $end
$var wire 1 f B $end
$var wire 1 : Y $end
$upscope $end
$scope module _62_ $end
$var wire 1 : A $end
$var wire 1 ; B $end
$var wire 1 9 Y $end
$upscope $end
$scope module _63_ $end
$var wire 1 9 A $end
$var wire 1 C B $end
$var wire 1 g Y $end
$upscope $end
$scope module _64_ $end
$var wire 1 8 Y $end
$var wire 1 $ A $end
$upscope $end
$scope module _65_ $end
$var wire 1 P A $end
$var wire 1 8 B $end
$var wire 1 7 Y $end
$upscope $end
$scope module _66_ $end
$var wire 1 7 A $end
$var wire 1 % B $end
$var wire 1 6 Y $end
$upscope $end
$scope module _67_ $end
$var wire 1 6 A $end
$var wire 1 D B $end
$var wire 1 R Y $end
$upscope $end
$scope module _68_ $end
$var wire 1 ( A $end
$var wire 1 5 Y $end
$upscope $end
$scope module _69_ $end
$var wire 1 Q A $end
$var wire 1 5 B $end
$var wire 1 h Y $end
$upscope $end
$scope module _70_ $end
$var wire 1 i A $end
$var wire 1 4 Y $end
$upscope $end
$scope module _71_ $end
$var wire 1 Q A $end
$var wire 1 4 B $end
$var wire 1 j Y $end
$upscope $end
$scope module _72_ $end
$var wire 1 G A $end
$var wire 1 Q B $end
$var wire 1 k Y $end
$upscope $end
$scope module _73_ $end
$var wire 1 O A $end
$var wire 1 Q B $end
$var wire 1 l Y $end
$upscope $end
$scope module _74_ $end
$var wire 1 N A $end
$var wire 1 Q B $end
$var wire 1 m Y $end
$upscope $end
$scope module _75_ $end
$var wire 1 L A $end
$var wire 1 Q B $end
$var wire 1 n Y $end
$upscope $end
$scope module _76_ $end
$var wire 1 o A $end
$var wire 1 3 Y $end
$upscope $end
$scope module _77_ $end
$var wire 1 Q A $end
$var wire 1 3 B $end
$var wire 1 p Y $end
$upscope $end
$scope module _78_ $end
$var wire 1 K A $end
$var wire 1 Q B $end
$var wire 1 q Y $end
$upscope $end
$scope module _79_ $end
$var wire 1 + C $end
$var wire 1 r D $end
$var reg 1 s Q $end
$upscope $end
$scope module _80_ $end
$var wire 1 + C $end
$var wire 1 t D $end
$var reg 1 u Q $end
$upscope $end
$scope module _81_ $end
$var wire 1 + C $end
$var wire 1 v D $end
$var reg 1 w Q $end
$upscope $end
$scope module _82_ $end
$var wire 1 + C $end
$var wire 1 x D $end
$var reg 1 y Q $end
$upscope $end
$scope module _83_ $end
$var wire 1 + C $end
$var wire 1 z D $end
$var reg 1 { Q $end
$upscope $end
$scope module _84_ $end
$var wire 1 + C $end
$var wire 1 | D $end
$var reg 1 } Q $end
$upscope $end
$scope module _85_ $end
$var wire 1 + C $end
$var wire 1 ~ D $end
$var reg 1 !" Q $end
$upscope $end
$scope module _86_ $end
$var wire 1 + C $end
$var wire 1 "" D $end
$var reg 1 #" Q $end
$upscope $end
$scope module _87_ $end
$var wire 1 + C $end
$var wire 1 R D $end
$var reg 1 $ Q $end
$upscope $end
$scope module _88_ $end
$var wire 1 + C $end
$var wire 1 U D $end
$var reg 1 2 Q $end
$upscope $end
$scope module _89_ $end
$var wire 1 + C $end
$var wire 1 $" D $end
$var reg 1 %" Q $end
$upscope $end
$scope module _90_ $end
$var wire 1 + C $end
$var wire 1 &" D $end
$var reg 1 '" Q $end
$upscope $end
$scope module _91_ $end
$var wire 1 + C $end
$var wire 1 (" D $end
$var reg 1 )" Q $end
$upscope $end
$scope module _92_ $end
$var wire 1 * C $end
$var wire 1 *" D $end
$var reg 1 +" Q $end
$upscope $end
$scope module _93_ $end
$var wire 1 * C $end
$var wire 1 ," D $end
$var reg 1 -" Q $end
$upscope $end
$scope module _94_ $end
$var wire 1 * C $end
$var wire 1 ." D $end
$var reg 1 /" Q $end
$upscope $end
$scope module _95_ $end
$var wire 1 * C $end
$var wire 1 0" D $end
$var reg 1 1" Q $end
$upscope $end
$scope module _96_ $end
$var wire 1 * C $end
$var wire 1 2" D $end
$var reg 1 3" Q $end
$upscope $end
$scope module _97_ $end
$var wire 1 * C $end
$var wire 1 4" D $end
$var reg 1 5" Q $end
$upscope $end
$scope module _98_ $end
$var wire 1 * C $end
$var wire 1 6" D $end
$var reg 1 7" Q $end
$upscope $end
$upscope $end
$scope module ser1 $end
$var wire 1 + clk $end
$var wire 1 * clk_8f $end
$var wire 1 ) data_in $end
$var wire 1 % reset_L $end
$var wire 1 # valid_outser1 $end
$var wire 8 8" shift_reg [7:0] $end
$var wire 8 9" data_outser1 [7:0] $end
$var wire 8 :" buffer [7:0] $end
$var wire 3 ;" bc_cnt [2:0] $end
$var wire 1 <" active $end
$var wire 1 =" _34_ $end
$var wire 1 >" _33_ $end
$var wire 1 ?" _32_ $end
$var wire 1 @" _31_ $end
$var wire 1 A" _30_ $end
$var wire 1 B" _29_ $end
$var wire 1 C" _28_ $end
$var wire 1 D" _27_ $end
$var wire 1 E" _26_ $end
$var wire 1 F" _25_ $end
$var wire 1 G" _24_ $end
$var wire 1 H" _23_ $end
$var wire 1 I" _22_ $end
$var wire 1 J" _21_ $end
$var wire 1 K" _20_ $end
$var wire 1 L" _19_ $end
$var wire 1 M" _18_ $end
$var wire 1 N" _17_ $end
$var wire 1 O" _16_ $end
$var wire 1 P" _15_ $end
$var wire 1 Q" _14_ $end
$var wire 1 R" _13_ $end
$var wire 1 S" _12_ $end
$var wire 1 T" _11_ $end
$var wire 1 U" _10_ $end
$var wire 1 V" _09_ $end
$var wire 1 W" _08_ $end
$var wire 1 X" _07_ $end
$var wire 1 Y" _06_ $end
$var wire 1 Z" _05_ $end
$var wire 1 [" _04_ $end
$var wire 1 \" _03_ $end
$var wire 8 ]" _02_ [7:0] $end
$var wire 3 ^" _01_ [2:0] $end
$var wire 1 _" _00_ $end
$scope module _35_ $end
$var wire 1 % A $end
$var wire 1 [" Y $end
$upscope $end
$scope module _36_ $end
$var wire 1 `" B $end
$var wire 1 Z" Y $end
$var wire 1 <" A $end
$upscope $end
$scope module _37_ $end
$var wire 1 Z" A $end
$var wire 1 [" B $end
$var wire 1 _" Y $end
$upscope $end
$scope module _38_ $end
$var wire 1 a" A $end
$var wire 1 Y" Y $end
$upscope $end
$scope module _39_ $end
$var wire 1 b" A $end
$var wire 1 X" Y $end
$upscope $end
$scope module _40_ $end
$var wire 1 X" A $end
$var wire 1 Y" B $end
$var wire 1 W" Y $end
$upscope $end
$scope module _41_ $end
$var wire 1 c" A $end
$var wire 1 V" Y $end
$upscope $end
$scope module _42_ $end
$var wire 1 d" A $end
$var wire 1 U" Y $end
$upscope $end
$scope module _43_ $end
$var wire 1 U" A $end
$var wire 1 V" B $end
$var wire 1 T" Y $end
$upscope $end
$scope module _44_ $end
$var wire 1 T" A $end
$var wire 1 W" B $end
$var wire 1 S" Y $end
$upscope $end
$scope module _45_ $end
$var wire 1 e" A $end
$var wire 1 ) B $end
$var wire 1 R" Y $end
$upscope $end
$scope module _46_ $end
$var wire 1 f" A $end
$var wire 1 Q" Y $end
$upscope $end
$scope module _47_ $end
$var wire 1 Q" A $end
$var wire 1 g" B $end
$var wire 1 P" Y $end
$upscope $end
$scope module _48_ $end
$var wire 1 P" A $end
$var wire 1 R" B $end
$var wire 1 O" Y $end
$upscope $end
$scope module _49_ $end
$var wire 1 O" A $end
$var wire 1 S" B $end
$var wire 1 N" Y $end
$upscope $end
$scope module _50_ $end
$var wire 1 N" A $end
$var wire 1 % B $end
$var wire 1 M" Y $end
$upscope $end
$scope module _51_ $end
$var wire 1 M" A $end
$var wire 1 h" B $end
$var wire 1 i" Y $end
$upscope $end
$scope module _52_ $end
$var wire 1 j" A $end
$var wire 1 L" Y $end
$upscope $end
$scope module _53_ $end
$var wire 1 k" A $end
$var wire 1 K" Y $end
$upscope $end
$scope module _54_ $end
$var wire 1 K" A $end
$var wire 1 L" B $end
$var wire 1 J" Y $end
$upscope $end
$scope module _55_ $end
$var wire 1 l" A $end
$var wire 1 m" B $end
$var wire 1 I" Y $end
$upscope $end
$scope module _56_ $end
$var wire 1 I" A $end
$var wire 1 J" B $end
$var wire 1 H" Y $end
$upscope $end
$scope module _57_ $end
$var wire 1 H" A $end
$var wire 1 M" B $end
$var wire 1 n" Y $end
$upscope $end
$scope module _58_ $end
$var wire 1 o" A $end
$var wire 1 G" Y $end
$upscope $end
$scope module _59_ $end
$var wire 1 I" A $end
$var wire 1 F" Y $end
$upscope $end
$scope module _60_ $end
$var wire 1 F" A $end
$var wire 1 G" B $end
$var wire 1 E" Y $end
$upscope $end
$scope module _61_ $end
$var wire 1 I" A $end
$var wire 1 p" B $end
$var wire 1 D" Y $end
$upscope $end
$scope module _62_ $end
$var wire 1 D" A $end
$var wire 1 E" B $end
$var wire 1 C" Y $end
$upscope $end
$scope module _63_ $end
$var wire 1 C" A $end
$var wire 1 M" B $end
$var wire 1 q" Y $end
$upscope $end
$scope module _64_ $end
$var wire 1 B" Y $end
$var wire 1 # A $end
$upscope $end
$scope module _65_ $end
$var wire 1 Z" A $end
$var wire 1 B" B $end
$var wire 1 A" Y $end
$upscope $end
$scope module _66_ $end
$var wire 1 A" A $end
$var wire 1 % B $end
$var wire 1 @" Y $end
$upscope $end
$scope module _67_ $end
$var wire 1 @" A $end
$var wire 1 N" B $end
$var wire 1 \" Y $end
$upscope $end
$scope module _68_ $end
$var wire 1 ) A $end
$var wire 1 ?" Y $end
$upscope $end
$scope module _69_ $end
$var wire 1 [" A $end
$var wire 1 ?" B $end
$var wire 1 r" Y $end
$upscope $end
$scope module _70_ $end
$var wire 1 s" A $end
$var wire 1 >" Y $end
$upscope $end
$scope module _71_ $end
$var wire 1 [" A $end
$var wire 1 >" B $end
$var wire 1 t" Y $end
$upscope $end
$scope module _72_ $end
$var wire 1 Q" A $end
$var wire 1 [" B $end
$var wire 1 u" Y $end
$upscope $end
$scope module _73_ $end
$var wire 1 Y" A $end
$var wire 1 [" B $end
$var wire 1 v" Y $end
$upscope $end
$scope module _74_ $end
$var wire 1 X" A $end
$var wire 1 [" B $end
$var wire 1 w" Y $end
$upscope $end
$scope module _75_ $end
$var wire 1 V" A $end
$var wire 1 [" B $end
$var wire 1 x" Y $end
$upscope $end
$scope module _76_ $end
$var wire 1 y" A $end
$var wire 1 =" Y $end
$upscope $end
$scope module _77_ $end
$var wire 1 [" A $end
$var wire 1 =" B $end
$var wire 1 z" Y $end
$upscope $end
$scope module _78_ $end
$var wire 1 U" A $end
$var wire 1 [" B $end
$var wire 1 {" Y $end
$upscope $end
$scope module _79_ $end
$var wire 1 + C $end
$var wire 1 |" D $end
$var reg 1 }" Q $end
$upscope $end
$scope module _80_ $end
$var wire 1 + C $end
$var wire 1 ~" D $end
$var reg 1 !# Q $end
$upscope $end
$scope module _81_ $end
$var wire 1 + C $end
$var wire 1 "# D $end
$var reg 1 ## Q $end
$upscope $end
$scope module _82_ $end
$var wire 1 + C $end
$var wire 1 $# D $end
$var reg 1 %# Q $end
$upscope $end
$scope module _83_ $end
$var wire 1 + C $end
$var wire 1 &# D $end
$var reg 1 '# Q $end
$upscope $end
$scope module _84_ $end
$var wire 1 + C $end
$var wire 1 (# D $end
$var reg 1 )# Q $end
$upscope $end
$scope module _85_ $end
$var wire 1 + C $end
$var wire 1 *# D $end
$var reg 1 +# Q $end
$upscope $end
$scope module _86_ $end
$var wire 1 + C $end
$var wire 1 ,# D $end
$var reg 1 -# Q $end
$upscope $end
$scope module _87_ $end
$var wire 1 + C $end
$var wire 1 \" D $end
$var reg 1 # Q $end
$upscope $end
$scope module _88_ $end
$var wire 1 + C $end
$var wire 1 _" D $end
$var reg 1 <" Q $end
$upscope $end
$scope module _89_ $end
$var wire 1 + C $end
$var wire 1 .# D $end
$var reg 1 /# Q $end
$upscope $end
$scope module _90_ $end
$var wire 1 + C $end
$var wire 1 0# D $end
$var reg 1 1# Q $end
$upscope $end
$scope module _91_ $end
$var wire 1 + C $end
$var wire 1 2# D $end
$var reg 1 3# Q $end
$upscope $end
$scope module _92_ $end
$var wire 1 * C $end
$var wire 1 4# D $end
$var reg 1 5# Q $end
$upscope $end
$scope module _93_ $end
$var wire 1 * C $end
$var wire 1 6# D $end
$var reg 1 7# Q $end
$upscope $end
$scope module _94_ $end
$var wire 1 * C $end
$var wire 1 8# D $end
$var reg 1 9# Q $end
$upscope $end
$scope module _95_ $end
$var wire 1 * C $end
$var wire 1 :# D $end
$var reg 1 ;# Q $end
$upscope $end
$scope module _96_ $end
$var wire 1 * C $end
$var wire 1 <# D $end
$var reg 1 =# Q $end
$upscope $end
$scope module _97_ $end
$var wire 1 * C $end
$var wire 1 ># D $end
$var reg 1 ?# Q $end
$upscope $end
$scope module _98_ $end
$var wire 1 * C $end
$var wire 1 @# D $end
$var reg 1 A# Q $end
$upscope $end
$upscope $end
$upscope $end
$scope module DFFSR $end
$var wire 1 B# C $end
$var wire 1 C# D $end
$var wire 1 D# R $end
$var wire 1 E# S $end
$var reg 1 F# Q $end
$upscope $end
$enddefinitions $end
#0
$dumpvars
xF#
zE#
zD#
zC#
zB#
xA#
0@#
x?#
0>#
x=#
0<#
x;#
0:#
x9#
08#
x7#
06#
x5#
04#
x3#
02#
x1#
00#
x/#
0.#
x-#
0,#
x+#
0*#
x)#
0(#
x'#
0&#
x%#
0$#
x##
0"#
x!#
0~"
x}"
0|"
0{"
0z"
xy"
0x"
0w"
0v"
0u"
0t"
xs"
0r"
0q"
xp"
xo"
0n"
xm"
xl"
xk"
xj"
0i"
xh"
xg"
xf"
xe"
xd"
xc"
xb"
xa"
x`"
0_"
b0 ^"
b0 ]"
0\"
1["
xZ"
xY"
xX"
xW"
xV"
xU"
xT"
xS"
xR"
xQ"
xP"
xO"
xN"
1M"
xL"
xK"
xJ"
xI"
xH"
xG"
xF"
xE"
xD"
xC"
xB"
xA"
1@"
1?"
x>"
x="
x<"
bx ;"
bzxxxxxxx :"
bx 9"
bx0 8"
x7"
06"
x5"
04"
x3"
02"
x1"
00"
x/"
0."
x-"
0,"
x+"
0*"
x)"
0("
x'"
0&"
x%"
0$"
x#"
0""
x!"
0~
x}
0|
x{
0z
xy
0x
xw
0v
xu
0t
xs
0r
0q
0p
xo
0n
0m
0l
0k
0j
xi
0h
0g
xf
xe
0d
xc
xb
xa
x`
0_
x^
x]
x\
x[
xZ
xY
xX
xW
xV
0U
b0 T
b0 S
0R
1Q
xP
xO
xN
xM
xL
xK
xJ
xI
xH
xG
xF
xE
xD
1C
xB
xA
x@
x?
x>
x=
x<
x;
x:
x9
x8
x7
16
15
x4
x3
x2
bx 1
bzxxxxxxx 0
bx /
bx0 .
bx -
bx ,
0+
0*
0)
0(
bx '
bx &
0%
x$
x#
z"
z!
$end
#1
0N"
0D
1S"
1I
1O"
1E
0P"
0W"
0T"
0F
0M
0J
1R"
1H
1>"
1Q"
1Y"
1X"
1V"
1="
1U"
14
1G
1O
1N
1L
13
1K
0s"
0e"
0f"
0a"
0b"
0c"
0y"
0g"
b0 8"
0d"
0i
0[
0\
0W
0X
0Y
0o
0]
b0 .
0Z
05#
07#
09#
0;#
0=#
0?#
bz0000000 :"
0A#
0+"
0-"
0/"
01"
03"
05"
bz0000000 0
07"
1*
#2
0*
#3
1*
#4
0*
#5
1*
#6
0*
#7
1*
#8
1C"
19
1H"
0D"
1>
0:
0R
0\"
0F"
0J"
0E"
0<
0@
0;
0A"
1I"
07
1?
16
1@"
1Z"
1L"
1K"
1G"
1P
1B
1A
1=
0Q
0["
1B"
0m"
0j"
0h"
0l"
0k"
0p"
0o"
0`"
18
0c
0`
0^
0b
0a
0f
0e
0V
1%
0}"
0!#
0##
0%#
0'#
0)#
0+#
b0 &
b0 ,
b0 9"
0-#
0#
0<"
0/#
01#
b0 ;"
03#
0s
0u
0w
0y
0{
0}
0!"
b0 '
b0 -
b0 /
0#"
0$
02
0%"
0'"
b0 1
0)"
0*
1+
#9
1r
1*"
1|"
14#
b1 S
1h
b1 ]"
1r"
0H
0R"
05
0?"
b1 .
1(
b1 8"
1)
1*
#10
0*
#11
1t
1,"
1~"
16#
0r
0*"
0|"
04#
1j
1t"
b10 S
0h
b10 ]"
0r"
04
0>"
15
1?"
1i
1[
1s"
1e"
b10 .
0(
b10 8"
0)
bz0000001 0
1+"
bz0000001 :"
15#
1*
#12
0*
#13
0~"
06#
1"#
18#
0t
0,"
1v
1."
0t"
1P"
1u"
0j
1F
1k
1r
1*"
1|"
14#
b101 S
1h
b101 ]"
1r"
1>"
0Q"
14
0G
0s"
0e"
1f"
0i
0[
1\
05
0?"
05#
bz0000010 :"
17#
0+"
bz0000010 0
1-"
b101 .
1(
b101 8"
1)
1*
#14
0*
#15
1x
10"
0v
0."
1t
1,"
1$#
1:#
0"#
08#
1~"
16#
1l
0F
0k
b1011 S
1j
1v"
0P"
0u"
b1011 ]"
1t"
0O
1G
04
0Y"
1Q"
0>"
1W
0\
b1011 .
1i
1[
1a"
0f"
b1011 8"
1s"
1e"
1/"
0-"
bz0000101 0
1+"
19#
07#
bz0000101 :"
15#
1*
#16
0*
0+
#17
1"#
18#
0$#
0:#
1&#
1<#
1v
1."
0x
00"
1z
12"
1P"
1u"
0v"
b10111 ]"
1w"
1F
1k
0l
b10111 S
1m
0Q"
1Y"
0X"
0G
1O
0N
1f"
0a"
b10111 8"
1b"
1\
0W
b10111 .
1X
17#
09#
bz0001011 :"
1;#
1-"
0/"
bz0001011 0
11"
1*
#18
0*
#19
1|
14"
0z
02"
1x
10"
1(#
1>#
0&#
0<#
1$#
1:#
1n
0m
b101111 S
1l
1x"
0w"
b101111 ]"
1v"
0L
1N
0O
0V"
1X"
0Y"
1Y
0X
b101111 .
1W
1c"
0b"
b101111 8"
1a"
13"
01"
bz0010111 0
1/"
1=#
0;#
bz0010111 :"
19#
1*
#20
0*
#21
1&#
1<#
0(#
0>#
1*#
1@#
1z
12"
0|
04"
1~
16"
1W"
1w"
0x"
1z"
1M
1m
0n
1p
0r
0*"
0|"
04#
0P"
0F
b1011110 S
0h
b1011110 ]"
0r"
0X"
1V"
0="
0N
1L
03
1b"
0c"
1y"
1g"
1X
0Y
1o
1]
15
1?"
1;#
0=#
bz0101111 :"
1?#
11"
03"
bz0101111 0
15"
b1011110 .
0(
b1011110 8"
0)
1*
#22
0*
#23
1$"
1.#
b1 T
1_
b1 ^"
1i"
0C
0M"
1D
1N"
0I
0S"
1""
0~
06"
1|
14"
0t
0,"
0E
1,#
0*#
0@#
1(#
1>#
0~"
06#
0O"
1q
0p
1J
1n
b10111100 S
0j
1{"
0z"
1T"
1x"
b10111100 ]"
0t"
1F
1H
1P"
1R"
0K
13
0L
14
0U"
1="
0V"
1>"
1Z
0o
0]
1Y
b10111100 .
0i
0[
1d"
0y"
0g"
1c"
b10111100 8"
0s"
0e"
17"
05"
13"
bz1011110 0
0+"
1A#
0?#
1=#
bz1011110 :"
05#
1*
#24
1&"
10#
1d
1n"
0>
0H"
1@
0$"
1J"
0.#
b10 T
0_
b10 ^"
0i"
0B
0L"
1c
1`
1^
1m"
1j"
1h"
b1 1
1%"
1#"
1}
1{
1y
b10111100 '
b10111100 -
b10111100 /
1w
b1 ;"
1/#
1-#
1)#
1'#
1%#
b10111100 &
b10111100 ,
b10111100 9"
1##
0*
1+
#25
0&"
00#
b0 T
0d
b0 ^"
0n"
1C
1M"
1S"
1I
0D
0N"
0"#
08#
1*#
1@#
0,#
0v
0."
1~
16"
0""
0u"
1z"
0T"
0{"
0k
1p
0J
0q
1E
1r
1*"
1O"
1|"
14#
0P"
0F
b1111001 S
1h
b1111001 ]"
1r"
1Q"
0="
1U"
1G
03
1K
0H
0R"
0f"
1y"
1g"
0d"
0\
1o
1]
0Z
05
0?"
07#
1?#
bz0111100 :"
0A#
0-"
15"
bz0111100 0
07"
b1111001 .
1(
b1111001 8"
1)
1*
#26
0*
#27
1""
0x
00"
1t
1,"
1,#
0$#
0:#
1~"
16#
0r
0*"
0|"
04#
1J
1q
0M
0l
1j
1T"
1{"
0W"
0v"
1t"
b11110010 S
0h
b11110010 ]"
0r"
0K
1O
04
0U"
1Y"
0>"
15
1?"
1Z
0W
1i
1[
1d"
0a"
1s"
1e"
b11110010 .
0(
b11110010 8"
0)
17"
0/"
bz1111001 0
1+"
1A#
09#
bz1111001 :"
15#
1*
#28
0*
#29
0~"
06#
1"#
18#
0&#
0<#
0t
0,"
1v
1."
0z
02"
0t"
1u"
0w"
0j
1k
0m
1r
1*"
1|"
14#
b11100101 S
1h
b11100101 ]"
1r"
1>"
0Q"
1X"
14
0G
1N
0s"
0e"
1f"
0b"
0i
0[
1\
0X
05
0?"
05#
17#
bz1110010 :"
0;#
0+"
1-"
bz1110010 0
01"
b11100101 .
1(
b11100101 8"
1)
1*
#30
0*
#31
0|
04"
1x
10"
0v
0."
1t
1,"
0(#
0>#
1$#
1:#
0"#
08#
1~"
16#
0J
0n
1l
0k
b11001011 S
1j
0T"
0x"
1v"
0u"
b11001011 ]"
1t"
1L
0O
1G
04
1V"
0Y"
1Q"
0>"
0Y
1W
0\
b11001011 .
1i
1[
0c"
1a"
0f"
b11001011 8"
1s"
1e"
03"
1/"
0-"
bz1100101 0
1+"
0=#
19#
07#
bz1100101 :"
15#
1*
#32
0*
0+
#33
1"#
18#
0$#
0:#
1&#
1<#
0*#
0@#
1v
1."
0x
00"
1z
12"
0~
06"
1P"
1u"
0v"
1w"
b10010111 ]"
0z"
1F
1k
0l
1m
b10010111 S
0p
0Q"
1Y"
0X"
1="
0G
1O
0N
13
1f"
0a"
1b"
b10010111 8"
0y"
0g"
1\
0W
1X
b10010111 .
0o
0]
17#
09#
1;#
bz1001011 :"
0?#
1-"
0/"
11"
bz1001011 0
05"
1*
#34
0*
#35
0""
1|
14"
0z
02"
1x
10"
0,#
1(#
1>#
0&#
0<#
1$#
1:#
0q
1n
0m
b101111 S
1l
0{"
1x"
0w"
b101111 ]"
1v"
1K
0L
1N
0O
1U"
0V"
1X"
0Y"
0Z
1Y
0X
b101111 .
1W
0d"
1c"
0b"
b101111 8"
1a"
07"
13"
01"
bz0010111 0
1/"
0A#
1=#
0;#
bz0010111 :"
19#
1*
#36
0*
#37
1&#
1<#
0(#
0>#
1*#
1@#
1z
12"
0|
04"
1~
16"
1W"
1w"
0x"
1z"
1M
1m
0n
1p
0r
0*"
0|"
04#
0P"
0F
b1011110 S
0h
b1011110 ]"
0r"
0X"
1V"
0="
0N
1L
03
1b"
0c"
1y"
1g"
1X
0Y
1o
1]
15
1?"
1;#
0=#
bz0101111 :"
1?#
11"
03"
bz0101111 0
15"
b1011110 .
0(
b1011110 8"
0)
1*
#38
0*
#39
1&"
10#
b10 T
1d
b10 ^"
1n"
0C
0M"
1D
1N"
0I
0S"
1""
0~
06"
1|
14"
0t
0,"
0E
1,#
0*#
0@#
1(#
1>#
0~"
06#
0O"
1q
0p
1J
1n
b10111100 S
0j
1{"
0z"
1T"
1x"
b10111100 ]"
0t"
1F
1H
1P"
1R"
0K
13
0L
14
0U"
1="
0V"
1>"
1Z
0o
0]
1Y
b10111100 .
0i
0[
1d"
0y"
0g"
1c"
b10111100 8"
0s"
0e"
17"
05"
13"
bz1011110 0
0+"
1A#
0?#
1=#
bz1011110 :"
05#
1*
#40
1.#
1$"
b11 ^"
1i"
b11 T
1_
1L"
0K"
1B
0A
0m"
0j"
0h"
1l"
1k"
0c
0`
0^
1b
1a
0/#
b10 ;"
11#
0%"
b10 1
1'"
0*
1+
#41
0$"
0&"
0.#
00#
0_
b0 T
0d
0i"
b0 ^"
0n"
1C
1M"
1S"
1I
0D
0N"
0"#
08#
1*#
1@#
0,#
0v
0."
1~
16"
0""
0u"
1z"
0T"
0{"
0k
1p
0J
0q
1E
1r
1*"
1O"
1|"
14#
0P"
0F
b1111001 S
1h
b1111001 ]"
1r"
1Q"
0="
1U"
1G
03
1K
0H
0R"
0f"
1y"
1g"
0d"
0\
1o
1]
0Z
05
0?"
07#
1?#
bz0111100 :"
0A#
0-"
15"
bz0111100 0
07"
b1111001 .
1(
b1111001 8"
1)
1*
#42
0*
#43
1""
0x
00"
1t
1,"
1,#
0$#
0:#
1~"
16#
0r
0*"
0|"
04#
1J
1q
0M
0l
1j
1T"
1{"
0W"
0v"
1t"
b11110010 S
0h
b11110010 ]"
0r"
0K
1O
04
0U"
1Y"
0>"
15
1?"
1Z
0W
1i
1[
1d"
0a"
1s"
1e"
b11110010 .
0(
b11110010 8"
0)
17"
0/"
bz1111001 0
1+"
1A#
09#
bz1111001 :"
15#
1*
#44
0*
